"서비스구분","서비스ID","대분류명","소분류명","서비스상태","서비스명","결제방법","장소명","서비스대상","바로가기URL","장소X좌표","장소Y좌표","서비스개시시작일시","서비스개시종료일시","접수시작일시","접수종료일시","지역명"
"자체","S151124145900696466","시설대관","강당","접수종료","송파문화예술회관 시설대관(강당)","유료(요금안내문의)","송파문화예술회관","제한없음","http://yeyak.seoul.go.kr/reservation/view.web?rsvsvcid=S151124145900696466","","","2015-12-01 00:00:00.0","2026-12-31 00:00:00.0","2015-12-01 00:00:00.0","2016-12-31 00:00:00.0","송파구"
"자체","S200122145151516919","시설대관","회의실","접수중","송파인성장애인복지관","무료","송파인성장애인복지관","제한없음","http://yeyak.seoul.go.kr/reservation/view.web?rsvsvcid=S200122145151516919","37.49389626315779","127.15518246887456","2020-01-01 00:00:00.0","2020-12-31 00:00:00.0","2020-01-01 09:00:00.0","2020-12-31 18:00:00.0","송파구"
"자체","S130329101301788815","시설대관","기타","접수종료","실내체육관(잠실)","유료(요금안내문의)","잠실종합운동장>실내체육관","제한없음","http://yeyak.seoul.go.kr/reservation/view.web?rsvsvcid=S130329101301788815","","","2018-01-01 00:00:00.0","2021-02-28 00:00:00.0","2020-05-06 09:00:00.0","2020-05-12 18:00:00.0","송파구"
"자체","S200128204137392643","시설대관","기타","접수종료","잠실실내체육관(연간대관)","유료(요금안내문의)","잠실종합운동장>실내체육관","제한없음","http://yeyak.seoul.go.kr/reservation/view.web?rsvsvcid=S200128204137392643","","","2020-01-28 00:00:00.0","2025-12-31 00:00:00.0","2020-02-01 09:00:00.0","2020-02-10 18:00:00.0","송파구"
"자체","S200220144907562309","시설대관","주민사랑방","접수중","방이2동 주민사랑방","무료","송파구 방이2동주민센터 ","제한없음","http://yeyak.seoul.go.kr/reservation/view.web?rsvsvcid=S200220144907562309","","","2020-07-01 00:00:00.0","2020-12-31 00:00:00.0","2020-07-06 09:00:00.0","2020-12-31 00:00:00.0","송파구"
"자체","S200220170651752333","시설대관","다목적실","접수중","방이2동 2층 다목적실","무료","송파구 방이2동주민센터 ","제한없음","http://yeyak.seoul.go.kr/reservation/view.web?rsvsvcid=S200220170651752333","","","2020-07-01 00:00:00.0","2020-12-31 00:00:00.0","2020-07-06 09:00:00.0","2020-12-30 00:00:00.0","송파구"
"자체","S200114105739653824","시설대관","다목적실","접수중","잠실7동 주민센터 다목적실(2층)","무료","잠실7동 주민센터","제한없음","http://yeyak.seoul.go.kr/reservation/view.web?rsvsvcid=S200114105739653824","","","2020-01-01 00:00:00.0","2020-12-31 00:00:00.0","2020-01-01 00:00:00.0","2020-12-31 18:00:00.0","송파구"
"자체","S130329105205633445","시설대관","기타","접수종료","잠실올림픽주경기장","유료(요금안내문의)","잠실종합운동장>올림픽주경기장","제한없음","http://yeyak.seoul.go.kr/reservation/view.web?rsvsvcid=S130329105205633445","","","2018-01-01 00:00:00.0","2021-01-31 00:00:00.0","2020-05-06 09:00:00.0","2020-05-12 18:00:00.0","송파구"
"자체","S200128211010337455","시설대관","기타","접수종료","잠실올림픽주경기장(연간대관)","유료(요금안내문의)","잠실종합운동장>올림픽주경기장","제한없음","http://yeyak.seoul.go.kr/reservation/view.web?rsvsvcid=S200128211010337455","","","2020-01-28 00:00:00.0","2025-12-31 00:00:00.0","2020-02-01 09:00:00.0","2020-02-10 18:00:00.0","송파구"
"자체","S200102103120479302","시설대관","강의실","접수중","석촌동주민센터 나눔방(3층)","유료(요금안내문의)","송파구 석촌동 자치회관>석촌동 주민센터 나눔방(3층)","제한없음","http://yeyak.seoul.go.kr/reservation/view.web?rsvsvcid=S200102103120479302","","","2020-01-02 00:00:00.0","2020-12-31 00:00:00.0","2020-01-02 09:00:00.0","2020-12-30 18:00:00.0","송파구"
"자체","S200102110314551066","시설대관","다목적실","접수중","석촌동주민센터 소통방(지하1층)","유료(요금안내문의)","송파구 석촌동 자치회관>석촌동 주민센터 소통방(지하1층)","제한없음","http://yeyak.seoul.go.kr/reservation/view.web?rsvsvcid=S200102110314551066","","","2020-01-02 00:00:00.0","2020-12-31 00:00:00.0","2020-01-02 09:00:00.0","2020-12-30 18:00:00.0","송파구"
"자체","S191112200103109775","시설대관","녹화/촬영","예약일시중지","2020년 영화촬영1(주간)-잠실","유료","잠실한강공원","제한없음","http://yeyak.seoul.go.kr/reservation/view.web?rsvsvcid=S191112200103109775","37.517626732848264","127.08673750627204","2019-12-01 00:00:00.0","2020-12-31 00:00:00.0","2019-12-01 00:00:00.0","2020-12-31 00:00:00.0","송파구"
"자체","S191112200336509251","시설대관","녹화/촬영","예약일시중지","2020년 영화촬영1(야간)-잠실","유료","잠실한강공원","제한없음","http://yeyak.seoul.go.kr/reservation/view.web?rsvsvcid=S191112200336509251","37.517626732848264","127.08673750627204","2019-12-01 00:00:00.0","2020-12-31 00:00:00.0","2019-12-01 00:00:00.0","2020-12-31 00:00:00.0","송파구"
"자체","S191112200624443429","시설대관","녹화/촬영","예약일시중지","2020년 녹화1-잠실","유료","잠실한강공원","제한없음","http://yeyak.seoul.go.kr/reservation/view.web?rsvsvcid=S191112200624443429","37.517626732848264","127.08673750627204","2019-12-01 00:00:00.0","2020-12-31 00:00:00.0","2019-12-01 00:00:00.0","2020-12-31 00:00:00.0","송파구"
"자체","S191112200847223721","시설대관","녹화/촬영","예약일시중지","2020년 녹화2-잠실","유료","잠실한강공원","제한없음","http://yeyak.seoul.go.kr/reservation/view.web?rsvsvcid=S191112200847223721","37.517626732848264","127.08673750627204","2019-12-01 00:00:00.0","2020-12-31 00:00:00.0","2019-12-01 00:00:00.0","2020-12-31 00:00:00.0","송파구"
"자체","S200102093709777891","시설대관","주민사랑방","접수중","석촌동주민센터 주민사랑방(3층)","유료","송파구 석촌동 자치회관","제한없음","http://yeyak.seoul.go.kr/reservation/view.web?rsvsvcid=S200102093709777891","","","2020-01-02 00:00:00.0","2020-12-31 00:00:00.0","2020-01-02 09:00:00.0","2020-12-30 18:00:00.0","송파구"
"자체","S191213144418053559","시설대관","다목적실","접수종료","풍납1동 주민센터 3층 다목적방","유료(요금안내문의)","풍납1동 자치회관","제한없음","http://yeyak.seoul.go.kr/reservation/view.web?rsvsvcid=S191213144418053559","","","2019-12-13 00:00:00.0","2020-12-31 00:00:00.0","2019-12-13 09:00:00.0","2019-12-13 17:00:00.0","송파구"
"자체","S191213145316159470","시설대관","다목적실","접수종료","풍납1동 주민센터 지하 다목적방","유료(요금안내문의)","풍납1동 자치회관","제한없음","http://yeyak.seoul.go.kr/reservation/view.web?rsvsvcid=S191213145316159470","","","2019-12-13 00:00:00.0","2020-12-31 00:00:00.0","2019-12-13 09:00:00.0","2019-12-13 18:00:00.0","송파구"
"자체","S130329152400483133","시설대관","기타","접수종료","보조경기장(잠실)","유료(요금안내문의)","잠실종합운동장>보조경기장","제한없음","http://yeyak.seoul.go.kr/reservation/view.web?rsvsvcid=S130329152400483133","","","2018-01-01 00:00:00.0","2021-01-31 00:00:00.0","2020-05-06 09:00:00.0","2020-05-12 18:00:00.0","송파구"
"자체","S200128210234461156","시설대관","기타","접수종료","잠실보조경기장(연간대관)","유료(요금안내문의)","잠실종합운동장>보조경기장","제한없음","http://yeyak.seoul.go.kr/reservation/view.web?rsvsvcid=S200128210234461156","","","2020-01-28 00:00:00.0","2025-12-31 00:00:00.0","2020-02-01 09:00:00.0","2020-02-10 18:00:00.0","송파구"
"자체","S200108175526658702","시설대관","기타","접수중","잠실2동 자치회관 공간WE","유료","송파구 잠실2동 자치회관","제한없음","http://yeyak.seoul.go.kr/reservation/view.web?rsvsvcid=S200108175526658702","","","2020-01-15 00:00:00.0","2020-12-31 00:00:00.0","2020-01-15 09:00:00.0","2020-12-30 18:00:00.0","송파구"
"자체","S191213145057342818","시설대관","주민사랑방","접수종료","풍납1동 주민센터 2층 주민사랑방","유료(요금안내문의)","풍납1동 주민사랑방","제한없음","http://yeyak.seoul.go.kr/reservation/view.web?rsvsvcid=S191213145057342818","","","2019-12-13 00:00:00.0","2020-12-31 00:00:00.0","2019-12-13 09:00:00.0","2019-12-13 17:00:00.0","송파구"