"키","명칭","행정시","행정구","행정동"
"BE_IW18-0238","Sinyeong Motel","Seoul","Yeongdeungpo-gu","Yeongdeungpo-dong"
"BE_IW18-0239","Siniljang","Seoul","Gangbuk-gu","Songcheon-dong"
"BE_IW18-0240","Santafe Motel","Seoul","Gwangjin-gu","Hwayang-dong"
"BE_IW18-0241","Aroma","Seoul","Jongno-gu","Sajik-dong"
"BE_IW18-0242","Amor","Seoul","Dongdaemun-gu","Imun1-dong"
"BE_IW18-0243","Amigos Hotel","Seoul","Gangseo-gu","Gonghang-dong"
"BE_IW18-0244","Absong Motel","Seoul","Gwanak-gu","Cheongnyong-dong"
"BE_IW18-0245","Atene","Seoul","Jungnang-gu","Mangubon-dong"
"BE_IW18-0246","Alpss Sanjang","Seoul","Gangseo-gu","Hwagok6-dong"
"BE_IW18-0247","Undukyue Hayanzib","Seoul","Jung-gu","Hoehyeon-dong"
"BE_IW18-0248","Evergreen ","Seoul","Songpa-gu","Bangi2-dong"
"BE_IW18-0249","Evergreen ","Seoul","Gangseo-gu","Hwagok1-dong"
"BE_IW18-0250","S Line","Seoul","Gangdong-gu","Gil-dong"
"BE_IW18-0251","Empire","Seoul","Seodaemun-gu","Sinchon-dong"
"BE_IW18-0252","M Plus","Seoul","Gangnam-gu","Samseong1-dong"
"BE_IW18-0253","Yeogajang","Seoul","Gwanak-gu","Jowon-dong"
"BE_IW18-0254","Yeoksam Motel","Seoul","Gangnam-gu","Yeoksam2-dong"
"BE_IW18-0255","Yeongdongjang Inn","Seoul","Gwangjin-gu","Jayang4-dong"
"BE_IW18-0256","Orange Motel","Seoul","Jungnang-gu","Mangubon-dong"
"BE_IW18-0257","Oslo","Seoul","Seocho-gu","Bangbaebon-dong"
"BE_IW18-0258","Otu Motel","Seoul","Gangseo-gu","Hwagok1-dong"
"BE_IW18-0259","Ocksujang","Seoul","Dongjak-gu","Sindaebang1-dong"
"BE_IW18-0260","Olive Hotel","Seoul","Songpa-gu","Bangi2-dong"
"BE_IW18-0261","All-in Motel","Seoul","Gangnam-gu","Nonhyeon2-dong"
"BE_IW18-0262","Wow","Seoul","Songpa-gu","Bangi2-dong"
"BE_IW18-0263","Woorijang Inn","Seoul","Yeongdeungpo-gu","Dangsan1-dong"
"BE_IW18-0264","Woorimjang","Seoul","Guro-gu","Guro2-dong"
"BE_IW18-0265","Wallbyeok Town","Seoul","Gangbuk-gu","Ui-dong"
"BE_IW18-0266","Wallsung Yeoinsuk","Seoul","Guro-gu","Garibong-dong"
"BE_IW18-0267","Union","Seoul","Jungnang-gu","Muk2-dong"
"BE_IW18-0268","Eunsung Yeoguan","Seoul","Jungnang-gu","Sangbong2-dong"
"BE_IW18-0269","Eunsungjang","Seoul","Yeongdeungpo-gu","Yeongdeungpo-dong"
"BE_IW18-0270","Easy Motel","Seoul","Seodaemun-gu","Sinchon-dong"
"BE_IW18-0271","Echae","Seoul","Seodaemun-gu","Sinchon-dong"
"BE_IW18-0272","Internet Motel","Seoul","Jongno-gu","Jongno5.6ga-dong"
"BE_IW18-0273","Yilsinjang","Seoul","Seodaemun-gu","Sinchon-dong"
"BE_IW18-0274","Yims House","Seoul","Jongno-gu","Jongno1.2.3.4ga-dong"
"BE_IW18-0275","Java Motel","Seoul","Jongno-gu","Sungin2-dong"
"BE_IW18-0276","Jagamoon Hotel","Seoul","Jongno-gu","Pyeongchang-dong"
"BE_IW18-0277","Jaeil Yeoinsuk","Seoul","Yeongdeungpo-gu","Singil6-dong"
"BE_IW18-0278","Jeiljang","Seoul","Gwanak-gu","Cheongnyong-dong"
"BE_IW18-0279","Joina","Seoul","Gangseo-gu","Hwagokbon-dong"
"BE_IW18-0280","Juno","Seoul","Gwangjin-gu","Junggok3-dong"
"BE_IW18-0281","Jinyang Yeoinsuk","Seoul","Guro-gu","Garibong-dong"
"BE_IW18-0282","Changwonjang","Seoul","Guro-gu","Guro2-dong"
"BE_IW18-0283","Cheonsujang","Seoul","Seongdong-gu","Seongsu2ga1-dong"
"BE_IW18-0284","Cheongsujang","Seoul","Guro-gu","Garibong-dong"
"BE_IW18-0285","Cheongsujang","Seoul","Jung-gu","Hoehyeon-dong"
"BE_IW18-0286","Chinese Restaurant","Seoul","Gangdong-gu","Cheonho3-dong"
"BE_IW18-0287","Cheongwonjang","Seoul","Jungnang-gu","Junghwa2-dong"
"BE_IW18-0288","Chello","Seoul","Yongsan-gu","Namyeong-dong"
"BE_IW18-0289","Chosiljang","Seoul","Dongdaemun-gu","Cheongnyangni-dong"
"BE_IW18-0290","Chowonjang","Seoul","Jongno-gu","Sungin2-dong"
"BE_IW18-0291","Chowon Park","Seoul","Gwanak-gu","Sillim-dong"
"BE_IW18-0292","Khanna","Seoul","Songpa-gu","Songpa1-dong"
"BE_IW18-0293","KS-tel","Seoul","Gwanak-gu","Cheongnyong-dong"
"BE_IW18-0294","Cube Motel","Seoul","Gwanak-gu","Sillim-dong"
"BE_IW18-0295","Crux","Seoul","Seodaemun-gu","Sinchon-dong"
"BE_IW18-0296","Clossing Hotel","Seoul","Gangseo-gu","Hwagok1-dong"
"BE_IW18-0297","Croce Motel","Seoul","Gangseo-gu","Hwagokbon-dong"
"BE_IW18-0298","Clio Motel","Seoul","Gwanak-gu","Cheongnyong-dong"
"BE_IW18-0299","Top Motel","Seoul","Dongjak-gu","Sindaebang1-dong"
"BE_IW18-0300","Top Tel","Seoul","Seongbuk-gu","Samseon-dong"
"BE_IW18-0301","Taerimjang","Seoul","Dongdaemun-gu","Jegi-dong"
"BE_IW18-0302","Taehwajang","Seoul","Gwangjin-gu","Neung-dong"
"BE_IW18-0303","Touch Motel","Seoul","Seodaemun-gu","Sinchon-dong"
"BE_IW18-0304","Theme","Seoul","Gwangjin-gu","Hwayang-dong"
"BE_IW18-0305","Theme 21","Seoul","Guro-gu","Guro5-dong"
"BE_IW18-0306","Theme 25 O'Clock","Seoul","Gwanak-gu","Nakseongdae-dong"
"BE_IW18-0307","Theme Motel","Seoul","Dongdaemun-gu","Jeonnong1-dong"
"BE_IW18-0308","Theme Hotel","Seoul","Gwangjin-gu","Guui3-dong"
"BE_IW18-0309","To Heaven","Seoul","Jongno-gu","Jongno1.2.3.4ga-dong"
"BE_IW18-0310","Triple R","Seoul","Gangdong-gu","Gil-dong"
"BE_IW18-0311","T","Seoul","Gangnam-gu","Samseong2-dong"
"BE_IW18-0312","Tirol Hotel","Seoul","Gangseo-gu","Yeomchang-dong"
"BE_IW18-0313","Tiffany","Seoul","Gangseo-gu","Gonghang-dong"
"BE_IW18-0314","Tiffany Motel","Seoul","Songpa-gu","Bangi2-dong"
"BE_IW18-0315","Pyeongan Yeoinsuk","Seoul","Guro-gu","Guro3-dong"
"BE_IW18-0316","Fox Motel","Seoul","Guro-gu","Oryu2-dong"
"BE_IW18-0317","Polaris Motel","Seoul","Yeongdeungpo-gu","Yeongdeungpo-dong"
"BE_IW18-0318","Prima Motel","Seoul","Gwangjin-gu","Hwayang-dong"
"BE_IW18-0319","Haneulsarang Motel","Seoul","Jungnang-gu","Mangubon-dong"
"BE_IW18-0320","Harim Motel","Seoul","Seongdong-gu","Songjeong-dong"
"BE_IW18-0321","Hyatt","Seoul","Geumcheon-gu","Siheung1-dong"
"BE_IW18-0322","Hartjang","Seoul","Jungnang-gu","Sangbong2-dong"
"BE_IW18-0323","Hanyang Yeoinsuk","Seoul","Yongsan-gu","Namyeong-dong"
"BE_IW18-0324","Haedongjang Yeoinsuk","Seoul","Yeongdeungpo-gu","Yangpyeong1-dong"
"BE_IW18-0325","Horim Motel","Seoul","Gwangjin-gu","Hwayang-dong"
"BE_IW18-0326","Hotel Lux","Seoul","Nowon-gu","Sanggye6.7-dong"
"BE_IW18-0327","Hotel Yaja","Seoul","Guro-gu","Oryu2-dong"
"BE_IW18-0328","Holiday in Korea Hostel","Seoul","Jongno-gu","Jongno1.2.3.4ga-dong"
"BE_IW18-0329","Hongrimjang","Seoul","Jungnang-gu","Mangubon-dong"
"BE_IW18-0330","Hawseongjang","Seoul","Eunpyeong-gu","Daejo-dong"
"BE_IW18-0331","HwangGeumjang","Seoul","Eunpyeong-gu","Galhyeon1-dong"
"BE_IW18-0332","HwangGeum Park","Seoul","Gwangjin-gu","Guui2-dong"
"BE_IW18-0333","Hilton Motel","Seoul","Gangseo-gu","Hwagokbon-dong"
"BE_IW18-0334","Hill house Hotel","Seoul","Jung-gu","Hoehyeon-dong"
"BE_IW18-0335","Cheongmoegol Farm","Seoul","Nowon-gu","Sanggye3.4-dong"
"BE_IW18-0336","Namhyundang Hanok Guesthouse","Seoul","Jongno-gu","Jongno1.2.3.4ga-dong"
"BE_IW18-0337","Moon Guest House","Seoul","Jongno-gu","Jongno1.2.3.4ga-dong"
"BE_IW18-0338","Eugene House","Seoul","Jongno-gu","Hyehwa-dong"
"BE_IW18-0339","Friends House","Seoul","Jongno-gu","Hyehwa-dong"
"BE_IW18-0340","Hueahn","Seoul","Jongno-gu","Gahoe-dong"
"BE_IW18-0001","The Pine Tree Condo","Seoul","Gangbuk-gu","Ui-dong"
"BE_IW18-0002","Tovis","Seoul","Seocho-gu","Yangjae1-dong"
"BE_IW18-0003","21 Saegi Motel","Seoul","Gwanak-gu","Cheongnyong-dong"
"BE_IW18-0004","CL Motel","Seoul","Gangseo-gu","Yeomchang-dong"
"BE_IW18-0005","GS Hotel","Seoul","Jongno-gu","Jongno1.2.3.4ga-dong"
"BE_IW18-0006","M Motel","Seoul","Dongdaemun-gu","Yongsin-dong"
"BE_IW18-0007","UNI Motel","Seoul","Gangdong-gu","Cheonho2-dong"
"BE_IW18-0008","VOLE Hotel","Seoul","Gangnam-gu","Yeoksam1-dong"
"BE_IW18-0009","Geogi","Seoul","Gangseo-gu","Hwagok1-dong"
"BE_IW18-0010","Galleria Motel","Seoul","Guro-gu","Oryu2-dong"
"BE_IW18-0011","Graend Motel","Seoul","Gwanak-gu","Namhyeon-dong"
"BE_IW18-0012","Geumgangsan Motel","Seoul","Seongdong-gu","Yongdap-dong"
"BE_IW18-0013","Gildong Motel","Seoul","Gangdong-gu","Gil-dong"
"BE_IW18-0014","Nadu Motel","Seoul","Gangbuk-gu","Suyu1-dong"
"BE_IW18-0015","Noblesse Motel","Seoul","Gangbuk-gu","Suyu1-dong"
"BE_IW18-0016","Noble Hotel","Seoul","Jongno-gu","Jongno1.2.3.4ga-dong"
"BE_IW18-0017","Newmond Motel","Seoul","Nowon-gu","Sanggye6.7-dong"
"BE_IW18-0018","Dinus Motel","Seoul","Gangbuk-gu","Insu-dong"
"BE_IW18-0019","Daedong Motel","Seoul","Gwangjin-gu","Jayang4-dong"
"BE_IW18-0020","The view ","Seoul","Songpa-gu","Bangi2-dong"
"BE_IW18-0021","Deoksu Motel","Seoul","Eunpyeong-gu","Galhyeon1-dong"
"BE_IW18-0022","D`oro Hotel","Seoul","Yongsan-gu","Itaewon1-dong"
"BE_IW18-0023","Lanos Motel","Seoul","Eunpyeong-gu","Bulgwang2-dong"
"BE_IW18-0024","Ramada Motel","Seoul","Seongbuk-gu","Dongseon-dong"
"BE_IW18-0025","Life Style F Motel","Seoul","Yeongdeungpo-gu","Yeongdeungpo-dong"
"BE_IW18-0026","Rainbow Motel","Seoul","Gangseo-gu","Hwagok1-dong"
"BE_IW18-0027","Rodeo Motel","Seoul","Yangcheon-gu","Sinjeong4-dong"
"BE_IW18-0028","Rodeo Motel","Seoul","Jungnang-gu","Myeonmok7-dong"
"BE_IW18-0029","Lino Hotel","Seoul","Songpa-gu","Bangi2-dong"
"BE_IW18-0030","Rivera Motel","Seoul","Seongbuk-gu","Dongseon-dong"
"BE_IW18-0031","Mama Motel","Seoul","Gangdong-gu","Myeongil1-dong"
"BE_IW18-0032","Meridian Motel","Seoul","Seodaemun-gu","Sinchon-dong"
"BE_IW18-0033","Morocco Hotel","Seoul","Songpa-gu","Bangi2-dong"
"BE_IW18-0034","Motel Soo","Seoul","Eunpyeong-gu","Eungam1-dong"
"BE_IW18-0035","Milano Motel","Seoul","Seongdong-gu","Wangsimnidoseon-dong"
"BE_IW18-0036","Valencia Motel","Seoul","Gangbuk-gu","Insu-dong"
"BE_IW18-0037","Bellagio Hotels","Seoul","Songpa-gu","Bangi2-dong"
"BE_IW18-0038","Bobo Hotel","Seoul","Mapo-gu","Seogyo-dong"
"BE_IW18-0039","Von Motel","Seoul","Gangseo-gu","Yeomchang-dong"
"BE_IW18-0040","Sarangbang Motel","Seoul","Dobong-gu","Banghak2-dong"
"BE_IW18-0041","Samo Motel ","Seoul","Jongno-gu","Jongno1.2.3.4ga-dong"
"BE_IW18-0042","Samoo Motel ","Seoul","Songpa-gu","Samjeon-dong"
"BE_IW18-0043","Saelmon Motel","Seoul","Gwangjin-gu","Junggok1-dong"
"BE_IW18-0044","Sam Motel","Seoul","Gangnam-gu","Yeoksam1-dong"
"BE_IW18-0045","Sangria Motel","Seoul","Gangnam-gu","Yeoksam1-dong"
"BE_IW18-0046","Sun Park","Seoul","Songpa-gu","Bangi2-dong"
"BE_IW18-0047","Chereville Hotel ","Seoul","Songpa-gu","Bangi2-dong"
"BE_IW18-0048","Sefia Motel","Seoul","Nowon-gu","Sanggye6.7-dong"
"BE_IW18-0049","Shell Motel","Seoul","Seocho-gu","Bangbaebon-dong"
"BE_IW18-0050","Swil Motel","Seoul","Gwangjin-gu","Gunja-dong"
"BE_IW18-0051","Swil Motel","Seoul","Eunpyeong-gu","Bulgwang2-dong"
"BE_IW18-0052","Shim Hotel","Seoul","Dongdaemun-gu","Jangan2-dong"
"BE_IW18-0053","Sky Motel","Seoul","Gangnam-gu","Yeoksam1-dong"
"BE_IW18-0054","Sky Motel","Seoul","Jongno-gu","Jongno1.2.3.4ga-dong"
"BE_IW18-0055","Sky Motel","Seoul","Songpa-gu","Jamsilbon-dong"
"BE_IW18-0056","Sky Motel","Seoul","Gwangjin-gu","Hwayang-dong"
"BE_IW18-0057","Cinema","Seoul","Dongdaemun-gu","Jangan2-dong"
"BE_IW18-0058","Cinema","Seoul","Gwangjin-gu","Jayang4-dong"
"BE_IW18-0059","Cinema Motel","Seoul","Jongno-gu","Jongno1.2.3.4ga-dong"
"BE_IW18-0060","Cinema Palace Hotel ","Seoul","Gangbuk-gu","Suyu3-dong"
"BE_IW18-0061","Xian Motel","Seoul","Eunpyeong-gu","Daejo-dong"
"BE_IW18-0062","Siesta Motel","Seoul","Gangbuk-gu","Beon1-dong"
"BE_IW18-0063","Siwon Motel","Seoul","Guro-gu","Oryu2-dong"
"BE_IW18-0064","Shinsegae  Motel","Seoul","Gangbuk-gu","Songjung-dong"
"BE_IW18-0065","Aroma Motel","Seoul","Geumcheon-gu","Doksan4-dong"
"BE_IW18-0066","Asia Motel","Seoul","Songpa-gu","Jamsilbon-dong"
"BE_IW18-0067","Eiffel Jun Motel","Seoul","Geumcheon-gu","Gasan-dong"
"BE_IW18-0068","Color M Motel","Seoul","Gwangjin-gu","Guui2-dong"
"BE_IW18-0069","M Hotel","Seoul","Gangnam-gu","Yeoksam1-dong"
"BE_IW18-0070","Oscar Motel","Seoul","Seocho-gu","Banpo4-dong"
"BE_IW18-0071","Olso Motel","Seoul","Gangseo-gu","Hwagok1-dong"
"BE_IW18-0072","Union Motel","Seoul","Seongbuk-gu","Bomun-dong"
"BE_IW18-0073","Yumi Motel","Seoul","Gangdong-gu","Gil-dong"
"BE_IW18-0074","Eunsan Motel","Seoul","Seongdong-gu","Yongdap-dong"
"BE_IW18-0075","Joha Motel","Seoul","Guro-gu","Gaebong2-dong"
"BE_IW18-0076","Cheonggiwa Motel","Seoul","Yangcheon-gu","Sinwol2-dong"
"BE_IW18-0077","Chelo Motel","Seoul","Gangbuk-gu","Suyu3-dong"
"BE_IW18-0078","Chelo Motel","Seoul","Songpa-gu","Bangi2-dong"
"BE_IW18-0079","Chelo Hotel","Seoul","Seocho-gu","Seocho3-dong"
"BE_IW18-0080","Chocolate Motel","Seoul","Gangseo-gu","Hwagok1-dong"
"BE_IW18-0081","Chocolate Motel","Seoul","Gangnam-gu","Yeoksam1-dong"
"BE_IW18-0082","Cafri","Seoul","Songpa-gu","Bangi2-dong"
"BE_IW18-0083","Q Motel","Seoul","Gangseo-gu","Hwagokbon-dong"
"BE_IW18-0084","Tower Motel","Seoul","Gangdong-gu","Gil-dong"
"BE_IW18-0085","Theme Motel","Seoul","Dongjak-gu","Sangdo2-dong"
"BE_IW18-0086","Theme Motel","Seoul","Jungnang-gu","Myeonmok2-dong"
"BE_IW18-0087","Paradise ","Seoul","Seongdong-gu","Wangsimnidoseon-dong"
"BE_IW18-0088","Palace Motel","Seoul","Gangbuk-gu","Suyu1-dong"
"BE_IW18-0089","Parkway Hotel","Seoul","Songpa-gu","Bangi2-dong"
"BE_IW18-0090","Patio Motel","Seoul","Gangbuk-gu","Beon1-dong"
"BE_IW18-0091","Podo Motel","Seoul","Gwanak-gu","Sillim-dong"
"BE_IW18-0092","Pom Motel","Seoul","Songpa-gu","Jamsilbon-dong"
"BE_IW18-0093","Prague Motel","Seoul","Yangcheon-gu","Sinwol1-dong"
"BE_IW18-0094","Prima Hotel","Seoul","Gangdong-gu","Gil-dong"
"BE_IW18-0095","Piano Motel","Seoul","Seongbuk-gu","Bomun-dong"
"BE_IW18-0096","Picasso Motel","Seoul","Gangbuk-gu","Insu-dong"
"BE_IW18-0097","Hi Motel","Seoul","Jungnang-gu","Mangubon-dong"
"BE_IW18-0098","Hite Motel","Seoul","Gwanak-gu","Nakseongdae-dong"
"BE_IW18-0099","High Park Motel","Seoul","Gwanak-gu","Cheongnyong-dong"
"BE_IW18-0100","Hanryeojang Motel","Seoul","Gwanak-gu","Sillim-dong"
"BE_IW18-0101","Hanyang ","Seoul","Jungnang-gu","Muk2-dong"
"BE_IW18-0102","Hollywood Motel","Seoul","Yeongdeungpo-gu","Yeongdeungpo-dong"
"BE_IW18-0103","Hotel Valentine","Seoul","Geumcheon-gu","Doksan1-dong"
"BE_IW18-0104","Hotel HIP","Seoul","Seodaemun-gu","Sinchon-dong"
"BE_IW18-0105","Hole in one Motel","Seoul","Gangbuk-gu","Suyu1-dong"
"BE_IW18-0106","Hwagok Motel","Seoul","Gangseo-gu","Hwagok1-dong"
"BE_IW18-0107","Hyu Motel","Seoul","Dongjak-gu","Daebang-dong"
"BE_IW18-0108","K2","Seoul","Gangseo-gu","Hwagok1-dong"
"BE_IW18-0109","PX Motel","Seoul","Yeongdeungpo-gu","Yeongdeungpo-dong"
"BE_IW18-0110","W Motel","Seoul","Dobong-gu","Chang5-dong"
"BE_IW18-0111","W Motel","Seoul","Gwangjin-gu","Hwayang-dong"
"BE_IW18-0112","Garden Park","Seoul","Gwanak-gu","Sillim-dong"
"BE_IW18-0113","Gaya","Seoul","Gangnam-gu","Samseong2-dong"
"BE_IW18-0114","Gangnarujang","Seoul","Gangdong-gu","Amsa2-dong"
"BE_IW18-0115","Gangnbyeonjang","Seoul","Gwangjin-gu","Jayang4-dong"
"BE_IW18-0116","Gaepungjang Motel","Seoul","Guro-gu","Gaebong2-dong"
"BE_IW18-0117","Gyeongrimjang Yeogwan","Seoul","Dobong-gu","Ssangmun3-dong"
"BE_IW18-0118","Gyerimjang","Seoul","Gangdong-gu","Cheonho3-dong"
"BE_IW18-0119","Golden Plaza","Seoul","Gangseo-gu","Hwagok1-dong"
"BE_IW18-0120","Gwangdeokjang","Seoul","Jung-gu","Jungnim-dong"
"BE_IW18-0121","Gukbinjang","Seoul","Gwanak-gu","Sillim-dong"
"BE_IW18-0122","Gukil","Seoul","Gwanak-gu","Sillim-dong"
"BE_IW18-0123","Gung","Seoul","Eunpyeong-gu","Eungam1-dong"
"BE_IW18-0124","Guibinjang","Seoul","Seongdong-gu","Seongsu1ga1-dong"
"BE_IW18-0125","Grand Prix","Seoul","Mapo-gu","Daheung-dong"
"BE_IW18-0126","Green ","Seoul","Gangseo-gu","Hwagok1-dong"
"BE_IW18-0127","Greenpia ","Seoul","Gangseo-gu","Hwagok1-dong"
"BE_IW18-0128","Geukdongjang","Seoul","Seongbuk-gu","Seokgwan-dong"
"BE_IW18-0129","Geumgang Motel","Seoul","Eunpyeong-gu","Daejo-dong"
"BE_IW18-0130","Geumgang Yeoinsuk","Seoul","Yeongdeungpo-gu","Dangsan1-dong"
"BE_IW18-0131","Geumjungjang","Seoul","Gwanak-gu","Sillim-dong"
"BE_IW18-0132","Geumhojang","Seoul","Yangcheon-gu","Sinjeong3-dong"
"BE_IW18-0133","Gilimjang Yeoguan","Seoul","Jungnang-gu","Sangbong2-dong"
"BE_IW18-0134","Cutee","Seoul","Gangnam-gu","Daechi4-dong"
"BE_IW18-0135","Kkumuigungjeon Motel","Seoul","Gwanak-gu","Nakseongdae-dong"
"BE_IW18-0136","Namsanjang","Seoul","Guro-gu","Garibong-dong"
"BE_IW18-0137","Namyang ","Seoul","Yeongdeungpo-gu","Yeongdeungpo-dong"
"BE_IW18-0138","Namcheonjang","Seoul","Dongjak-gu","Noryangjin2-dong"
"BE_IW18-0139","Nex Motel","Seoul","Dongdaemun-gu","Jangan2-dong"
"BE_IW18-0140","New Starjang(Inn)","Seoul","Dobong-gu","Dobong1-dong"
"BE_IW18-0141","New Alpss Motel","Seoul","Gangseo-gu","Hwagok1-dong"
"BE_IW18-0142","New Hilton","Seoul","Geumcheon-gu","Doksan3-dong"
"BE_IW18-0143","Dina Mote","Seoul","Gwanak-gu","Namhyeon-dong"
"BE_IW18-0144","Daedojang","Seoul","Yeongdeungpo-gu","Daerim1-dong"
"BE_IW18-0145","Daeyangjang","Seoul","Jung-gu","Myeong-dong"
"BE_IW18-0146","Daeyungjang","Seoul","Jung-gu","Jungnim-dong"
"BE_IW18-0147","Daewunjang","Seoul","Mapo-gu","Daheung-dong"
"BE_IW18-0148","Daehojang","Seoul","Nowon-gu","Wolgye1-dong"
"BE_IW18-0149","Deoksungjang","Seoul","Yongsan-gu","Namyeong-dong"
"BE_IW18-0150","Dobongsanjang","Seoul","Dobong-gu","Dobong1-dong"
"BE_IW18-0151","Dowon Yeoinsuk","Seoul","Guro-gu","Guro4-dong"
"BE_IW18-0152","DongGyeong Motel","Seoul","Mapo-gu","Seogyo-dong"
"BE_IW18-0153","Dongbojang","Seoul","Dongdaemun-gu","Jegi-dong"
"BE_IW18-0154","Dongiljang","Seoul","Dongjak-gu","Sangdo2-dong"
"BE_IW18-0155","Dongiljang","Seoul","Gangnam-gu","Yeoksam1-dong"
"BE_IW18-0156","Dongji Motel","Seoul","Eunpyeong-gu","Daejo-dong"
"BE_IW18-0157","Ranos ","Seoul","Gwanak-gu","Sillim-dong"
"BE_IW18-0158","La Seine Motel","Seoul","Mapo-gu","Daheung-dong"
"BE_IW18-0159","Life Hotel","Seoul","Gangbuk-gu","Suyu1-dong"
"BE_IW18-0160","Laterra","Seoul","Seongdong-gu","Wangsimnidoseon-dong"
"BE_IW18-0161","Rock Hotel","Seoul","Seodaemun-gu","Sinchon-dong"
"BE_IW18-0162","Ram Part","Seoul","Gwanak-gu","Namhyeon-dong"
"BE_IW18-0163","Love Letter","Seoul","Gangseo-gu","Hwagok6-dong"
"BE_IW18-0164","Rainbowjang","Seoul","Yongsan-gu","Hangangno-dong"
"BE_IW18-0165","Rex Motel","Seoul","Gangseo-gu","Hwagok1-dong"
"BE_IW18-0166","Rex Motel","Seoul","Dongjak-gu","Sindaebang2-dong"
"BE_IW18-0167","Rexy Hotel","Seoul","Seodaemun-gu","Sinchon-dong"
"BE_IW18-0168","Motel","Seoul","Gangdong-gu","Cheonho2-dong"
"BE_IW18-0169","Rose Hill Motel","Seoul","Jungnang-gu","Sangbong2-dong"
"BE_IW18-0170","Ru","Seoul","Gwangjin-gu","Guui1-dong"
"BE_IW18-0171","Ru Motel","Seoul","Jung-gu","Gwanghui-dong"
"BE_IW18-0172","Renaissance","Seoul","Gangseo-gu","Hwagok1-dong"
"BE_IW18-0173","River Motel","Seoul","Gwangjin-gu","Gunja-dong"
"BE_IW18-0174","Ribera","Seoul","Jungnang-gu","Sangbong2-dong"
"BE_IW18-0175","Rio Motel","Seoul","Dongdaemun-gu","Yongsin-dong"
"BE_IW18-0176","Ritz","Seoul","Gangnam-gu","Sinsa-dong"
"BE_IW18-0177","Maru","Seoul","Jung-gu","Sogong-dong"
"BE_IW18-0178","Metro 21 Hotel","Seoul","Songpa-gu","Bangi2-dong"
"BE_IW18-0179","Myeongdongjang","Seoul","Guro-gu","Guro4-dong"
"BE_IW18-0180","Myeongdong Park","Seoul","Gwanak-gu","Cheongnyong-dong"
"BE_IW18-0181","Myeongbojang Motel","Seoul","Gwanak-gu","Sillim-dong"
"BE_IW18-0182","Myeongsung Park","Seoul","Dongdaemun-gu","Jeonnong1-dong"
"BE_IW18-0183","MoaMoa Motel","Seoul","Gwanak-gu","Sillim-dong"
"BE_IW18-0184","Motel Grigo","Seoul","Gwangjin-gu","Hwayang-dong"
"BE_IW18-0185","Motel Mong","Seoul","Jongno-gu","Jongno1.2.3.4ga-dong"
"BE_IW18-0186","Mokhwa Motel","Seoul","Seocho-gu","Seocho3-dong"
"BE_IW18-0187","Montblanc ","Seoul","Yeongdeungpo-gu","Yeongdeungpo-dong"
"BE_IW18-0188","Mirage Motel","Seoul","Jongno-gu","Buam-dong"
"BE_IW18-0189","Mirimjang","Seoul","Gangnam-gu","Samseong2-dong"
"BE_IW18-0190","Mi Motel","Seoul","Jungnang-gu","Sangbong2-dong"
"BE_IW18-0191","Mizo Motel","Seoul","Jung-gu","Myeong-dong"
"BE_IW18-0192","Mihwajang","Seoul","Yeongdeungpo-gu","Singil1-dong"
"BE_IW18-0193","Millano","Seoul","Guro-gu","Guro5-dong"
"BE_IW18-0194","Millennium ","Seoul","Seodaemun-gu","Sinchon-dong"
"BE_IW18-0195","Baegakgwan Motel","Seoul","Seodaemun-gu","Sinchon-dong"
"BE_IW18-0196","Baekjojang","Seoul","Yangcheon-gu","Sinwol1-dong"
"BE_IW18-0197","Baekhapjang","Seoul","Gwanak-gu","Nakseongdae-dong"
"BE_IW18-0198","Very Six Hotels","Seoul","Gangnam-gu","Yeoksam2-dong"
"BE_IW18-0199","Benhur Hotel","Seoul","Jung-gu","Dasan-dong"
"BE_IW18-0200","Bomyeongjang","Seoul","Songpa-gu","Jamsilbon-dong"
"BE_IW18-0201","Bobos Motel","Seoul","Gwanak-gu","Cheongnyong-dong"
"BE_IW18-0202","Boseongjang Inn","Seoul","Mapo-gu","Gongdeok-dong"
"BE_IW18-0203","Boseongjang Inn","Seoul","Yeongdeungpo-gu","Yeongdeungpo-dong"
"BE_IW18-0204","Bongsanjang","Seoul","Seongdong-gu","Wangsimnidoseon-dong"
"BE_IW18-0205","Bureune Motel","Seoul","Seongdong-gu","Wangsimnidoseon-dong"
"BE_IW18-0206","Buwonjang Inn","Seoul","Dongjak-gu","Sadang1-dong"
"BE_IW18-0207","Buheung Yeoinsuk","Seoul","Yeongdeungpo-gu","Daerim1-dong"
"BE_IW18-0208","Veiw Motel","Seoul","Gwanak-gu","Sillim-dong"
"BE_IW18-0209","Beuty Motel","Seoul","Gwanak-gu","Namhyeon-dong"
"BE_IW18-0210","Blue Motel","Seoul","Seodaemun-gu","Sinchon-dong"
"BE_IW18-0211","Santafe","Seoul","Gangdong-gu","Dunchon2-dong"
"BE_IW18-0212","Samsung Yeoinsuk","Seoul","Yeongdeungpo-gu","Dangsan1-dong"
"BE_IW18-0213","Samsungjang","Seoul","Yongsan-gu","Bogwang-dong"
"BE_IW18-0214","Samajang","Seoul","Gangnam-gu","Nonhyeon2-dong"
"BE_IW18-0215","Samwonjang","Seoul","Yeongdeungpo-gu","Daerim2-dong"
"BE_IW18-0216","Samwonjang","Seoul","Gwanak-gu","Sillim-dong"
"BE_IW18-0217","Saelmon Motel","Seoul","Jungnang-gu","Sangbong2-dong"
"BE_IW18-0218","Charmant Motel","Seoul","Gangseo-gu","Hwagokbon-dong"
"BE_IW18-0219","SeoGwangjang Motel","Seoul","Gwanak-gu","Jowon-dong"
"BE_IW18-0220","Seorimjang","Seoul","Yongsan-gu","Hangangno-dong"
"BE_IW18-0221","Seouljang Inn","Seoul","Geumcheon-gu","Gasan-dong"
"BE_IW18-0222","Seonyudo Island","Seoul","Yeongdeungpo-gu","Yangpyeong2-dong"
"BE_IW18-0223","Seongrimjang","Seoul","Jungnang-gu","Mangubon-dong"
"BE_IW18-0224","Sungwonjang","Seoul","Gangbuk-gu","Samyang-dong"
"BE_IW18-0225","Sungho Motel","Seoul","Geumcheon-gu","Doksan4-dong"
"BE_IW18-0226","Su Motel","Seoul","Seodaemun-gu","Sinchon-dong"
"BE_IW18-0227","Su-Song Motel","Seoul","Jongno-gu","Jongno1.2.3.4ga-dong"
"BE_IW18-0228","Cherevel Hotel","Seoul","Songpa-gu","Bangi2-dong"
"BE_IW18-0229","Suisse","Seoul","Gwanak-gu","Sillim-dong"
"BE_IW18-0230","Stella","Seoul","Gangnam-gu","Yeoksam2-dong"
"BE_IW18-0231","Story two","Seoul","Guro-gu","Guro5-dong"
"BE_IW18-0232","Cinema Motel","Seoul","Gangseo-gu","Hwagok6-dong"
"BE_IW18-0233","Seattle Hotel","Seoul","Gangnam-gu","Yeoksam1-dong"
"BE_IW18-0234","CF Hotel","Seoul","Seodaemun-gu","Namgajwa1-dong"
"BE_IW18-0235","Sinna Motel","Seoul","Jungnang-gu","Junghwa2-dong"
"BE_IW18-0236","Sillajang Inn","Seoul","Yeongdeungpo-gu","Singil1-dong"
"BE_IW18-0237","Sinyeong ","Seoul","Jongno-gu","Buam-dong"