"서비스구분","서비스ID","대분류명","소분류명","서비스상태","서비스명","결제방법","장소명","서비스대상","바로가기URL","장소X좌표","장소Y좌표","서비스개시시작일시","서비스개시종료일시","접수시작일시","접수종료일시","지역명"
"자체","S200519180528039690","교육","체험/견학","접수종료","(토요일)곤충관찰교실","무료","북한산>초안산근린공원>세대공감공원","어린이(초등학생)","http://yeyak.seoul.go.kr/reservation/view.web?rsvsvcid=S200519180528039690","37.6438749341","127.0467687533","2020-05-19 00:00:00.0","2020-06-18 00:00:00.0","2020-05-19 09:00:00.0","2020-06-18 14:00:00.0","도봉구"
"자체","S200520095511633701","교육","체험/견학","접수중","(일요일)둘레길걷기","무료","도봉산목재문화체험장","제한없음(초등학생)","http://yeyak.seoul.go.kr/reservation/view.web?rsvsvcid=S200520095511633701","37.68713196332499","127.03923618128724","2020-05-20 00:00:00.0","2020-06-28 00:00:00.0","2020-05-20 09:00:00.0","2020-06-25 14:00:00.0","도봉구"
"자체","S200520110740298808","교육","체험/견학","접수종료","(토요일)가족숲체험","무료","북한산>초안산근린공원>세대공감공원","제한없음","http://yeyak.seoul.go.kr/reservation/view.web?rsvsvcid=S200520110740298808","37.6438749341","127.0467687533","2020-05-20 00:00:00.0","2020-06-27 00:00:00.0","2020-05-20 09:00:00.0","2020-06-25 16:00:00.0","도봉구"
"자체","S200520144456094927","교육","체험/견학","접수종료","(일요일)꿈키움유아숲체험장 가족프로그램","무료","도봉구 창3동 주민센터 2층 주민사랑방","유아(초등학생)","http://yeyak.seoul.go.kr/reservation/view.web?rsvsvcid=S200520144456094927","","","2020-05-20 00:00:00.0","2020-06-21 00:00:00.0","2020-05-20 09:00:00.0","2020-06-18 16:00:00.0","도봉구"
"자체","S200520152148619646","교육","체험/견학","접수종료","(토요일)반딧불이유아숲체험장 가족프로그램","무료","북한산>초안산근린공원","유아","http://yeyak.seoul.go.kr/reservation/view.web?rsvsvcid=S200520152148619646","37.64749529583756","127.04138639566824","2020-05-20 00:00:00.0","2020-06-13 00:00:00.0","2020-05-20 09:00:00.0","2020-06-11 16:00:00.0","도봉구"
"자체","S200520162011042242","교육","체험/견학","접수종료","(토요일)뚝딱뚝딱 모험놀이터 주말 프로그램","무료","북한산>초안산근린공원>세대공감공원","어린이(초등학생)","http://yeyak.seoul.go.kr/reservation/view.web?rsvsvcid=S200520162011042242","37.6438749341","127.0467687533","2020-05-20 00:00:00.0","2020-06-20 00:00:00.0","2020-05-20 09:00:00.0","2020-06-18 16:00:00.0","도봉구"
"자체","S200520164214411082","교육","체험/견학","접수종료","(토요일)뚝딱뚝딱 모험놀이터 주말 프로그램","무료","북한산>초안산근린공원>세대공감공원","어린이(초등학생)","http://yeyak.seoul.go.kr/reservation/view.web?rsvsvcid=S200520164214411082","37.6438749341","127.0467687533","2020-05-20 00:00:00.0","2020-06-27 00:00:00.0","2020-05-20 09:00:00.0","2020-06-25 16:00:00.0","도봉구"
"자체","S200520165336332653","교육","체험/견학","접수중","도봉구 자연생태체험","무료","북한산>초안산근린공원>세대공감공원","제한없음(초등학생)","http://yeyak.seoul.go.kr/reservation/view.web?rsvsvcid=S200520165336332653","37.6438749341","127.0467687533","2020-05-20 00:00:00.0","2020-12-26 00:00:00.0","2020-05-20 09:00:00.0","2020-12-10 14:00:00.0","도봉구"
"자체","S200521160154469439","교육","체험/견학","접수중","(주말)리틀숲탐험대","무료","둘리뮤지엄","제한없음","http://yeyak.seoul.go.kr/reservation/view.web?rsvsvcid=S200521160154469439","37.652429497961585","127.02763657347647","2020-05-21 00:00:00.0","2020-06-27 00:00:00.0","2020-05-21 09:00:00.0","2020-06-11 16:00:00.0","도봉구"
"자체","S200522094137600994","교육","체험/견학","접수중","(토요일)하늘유아숲체험장 가족프로그램","무료","둘리뮤지엄","유아(만3세~만5세 가족)","http://yeyak.seoul.go.kr/reservation/view.web?rsvsvcid=S200522094137600994","37.652429497961585","127.02763657347647","2020-05-22 00:00:00.0","2020-06-20 00:00:00.0","2020-05-22 09:00:00.0","2020-06-18 18:00:00.0","도봉구"
"자체","S200522104137441442","교육","체험/견학","접수중","초안산 잣나무 치유의 숲길","무료","북한산>초안산근린공원>세대공감공원","제한없음","http://yeyak.seoul.go.kr/reservation/view.web?rsvsvcid=S200522104137441442","37.6438749341","127.0467687533","2020-05-06 00:00:00.0","2020-12-25 00:00:00.0","2020-05-22 09:00:00.0","2020-12-10 00:00:00.0","도봉구"
"자체","S200528174745444256","교육","체험/견학","접수중","(금요일)에코티어링","무료","도봉구 창1동주민센터","어린이(7세이상)","http://yeyak.seoul.go.kr/reservation/view.web?rsvsvcid=S200528174745444256","","","2020-05-28 00:00:00.0","2020-06-27 00:00:00.0","2020-05-28 09:00:00.0","2020-06-24 12:00:00.0","도봉구"
"연계","XML-21494771","교육","인문/언어","접수중","중국어교실","무료","창4동자치회관 강의실","누구나","http://jachi.dobong.go.kr/JUMIN/sub03/sub03_01_view.aspx?LectureCode=3501","","","2020-01-02 00:00:00.0","2020-12-31 00:00:00.0","2019-12-16 10:00:00.0","2020-12-31 12:00:00.0","도봉구"
"연계","XML-21494770","교육","취미","접수중","서예교실(한글)","유료","창4동자치회관 대강당","누구나","http://jachi.dobong.go.kr/JUMIN/sub03/sub03_01_view.aspx?LectureCode=3395","","","2020-01-02 00:00:00.0","2020-12-31 00:00:00.0","2019-12-16 10:00:00.0","2020-12-31 12:00:00.0","도봉구"
"연계","XML-21494769","교육","취미","접수중","서예교실(한문)","유료","창4동자치회관 강의실","누구나","http://jachi.dobong.go.kr/JUMIN/sub03/sub03_01_view.aspx?LectureCode=3393","","","2020-01-02 00:00:00.0","2020-12-31 00:00:00.0","2019-12-16 10:00:00.0","2020-12-31 12:00:00.0","도봉구"
"연계","XML-21494768","교육","기타","접수중","노래교실","유료","창4동자치회관 강의실","누구나","http://jachi.dobong.go.kr/JUMIN/sub03/sub03_01_view.aspx?LectureCode=3392","","","2019-01-02 00:00:00.0","2020-12-31 00:00:00.0","2019-12-16 10:00:00.0","2020-12-31 12:00:00.0","도봉구"
"연계","XML-21494767","교육","취미","접수중","캘리그라피","유료","창4동자치회관 강의실","누구나","http://jachi.dobong.go.kr/JUMIN/sub03/sub03_01_view.aspx?LectureCode=3391","","","2020-01-02 00:00:00.0","2020-12-31 00:00:00.0","2019-12-16 10:00:00.0","2020-12-31 12:00:00.0","도봉구"
"연계","XML-21494766","교육","인문/언어","접수중","여행영어","유료","창4동자치회관 강의실","누구나","http://jachi.dobong.go.kr/JUMIN/sub03/sub03_01_view.aspx?LectureCode=3390","","","2020-01-02 00:00:00.0","2020-12-31 00:00:00.0","2019-12-16 10:00:00.0","2020-12-31 12:00:00.0","도봉구"
"연계","XML-21494765","교육","인문/언어","접수중","생활영어","유료","창4동자치회관 대강당","누구나","http://jachi.dobong.go.kr/JUMIN/sub03/sub03_01_view.aspx?LectureCode=3389","","","2020-01-02 00:00:00.0","2020-12-31 00:00:00.0","2019-12-16 10:00:00.0","2020-12-31 12:00:00.0","도봉구"
"연계","XML-21494764","교육","건강/스포츠","접수중","요가","유료","창4동자치회관 강의실","누구나","http://jachi.dobong.go.kr/JUMIN/sub03/sub03_01_view.aspx?LectureCode=3387","","","2020-01-02 00:00:00.0","2020-12-31 00:00:00.0","2019-12-16 13:30:00.0","2020-12-31 15:30:00.0","도봉구"
"연계","XML-21494763","교육","건강/스포츠","접수중","국선도","유료","창4동자치회관 강의실","누구나","http://jachi.dobong.go.kr/JUMIN/sub03/sub03_01_view.aspx?LectureCode=3386","","","2020-01-02 00:00:00.0","2020-12-31 00:00:00.0","2019-12-16 09:30:00.0","2020-12-31 11:30:00.0","도봉구"