"키","명칭","행정 시","행정 구","행정 동","지정고시일","면적(㎢)","연락처"
"BE_IW02-0001","Itaewon Special Tourist Zone","Seoul","Yongsan-gu","Itaewon2-dong Hannam2-dong","1997-09-29","0.38000","02-2199-7254"
"BE_IW02-0002","Myeong-dong Namdaemun Bukchang-dong Da-dong Mugyo-dong Special Tourist Zone","Seoul","Jung-gu","Sogong-dong Hoehyeon-dong Myeong-dong Mugyo-dong Da-dong namdaemunno 1-ga Samgak-dong Suha-dong Janggyo-dong Euljiro 1-ga Euljiro 2-ga Taepyeongno 1-ga Taepyeongno 2-ga","2000-03-30 (2012-12-27)","0.87000","02-3396-4622"
"BE_IW02-0003","Dongdaemun Fashion Town Special Tourist Zone","Seoul","Jung-gu","Gwanghui-dong Euljiro 3-ga Euljiro 4-ga Euljiro 5-ga Sindang 1-dong","2002-05-23","0.58000","02-3396-4622"
"BE_IW02-0004","Jongno Cheonggye Special Toruist Zone","Seoul","Jongno-gu","Seorin-dong Gwancheol-dong Gwansu-dong Jangsa-dong Yeji-dong","2006-03-30","0.54000","02-2148-1862"
"BE_IW02-0005","Jamsil Special Tourist zone","Seoul","Songpa-gu","Jamsilbon-dong Sincheon-dong Seokchon-dong Songpa-dong Bangi-dong","2012-03-15","2.31000","02-2147-2107"
"BE_IW02-0006","Gangnam Mice Special Tourist Zone","Seoul","Gangnam-gu","Samseong1-dong","2014-12-18","0.19000","02-3423-5535"